digital/car/isim.log
ISim log file
Running: C:\Digi\car\HalfAdder_HalfAdder_sch_tb_isim_beh.exe -intstyle ise -gui -tclbatch isim.cmd -wdb C:/Digi/car/HalfAdder_HalfAdder_sch_tb_isim_beh.wdb 
ISim P.20131013 (signature 0x7708f090)
This is a Full version of ISim.
Time resolution is 1 ps
# onerror resume
# wave add /
# run 1000 ns
Simulator is doing circuit initialization process.
Finished circuit initialization process.
H=0,S=0,B=0,D=0,E=0 : X = 0
H=0,S=0,B=0,D=0,E=1 : X = 1
H=0,S=0,B=0,D=1,E=0 : X = 0
H=0,S=0,B=0,D=1,E=1 : X = 0
H=0,S=0,B=1,D=0,E=0 : X = 0
H=0,S=0,B=1,D=0,E=1 : X = 1
H=0,S=0,B=1,D=1,E=0 : X = 1
H=0,S=0,B=1,D=1,E=1 : X = 1
H=0,S=1,B=0,D=0,E=0 : X = 0
H=0,S=1,B=0,D=0,E=1 : X = 1
H=0,S=1,B=0,D=1,E=0 : X = 0
H=0,S=1,B=0,D=1,E=1 : X = 1
H=0,S=1,B=1,D=0,E=0 : X = 0
H=0,S=1,B=1,D=0,E=1 : X = 1
H=0,S=1,B=1,D=1,E=0 : X = 0
H=0,S=1,B=1,D=1,E=1 : X = 0
H=1,S=0,B=0,D=0,E=0 : X = 1
H=1,S=0,B=0,D=0,E=1 : X = 1
H=1,S=0,B=0,D=1,E=0 : X = 1
H=1,S=0,B=0,D=1,E=1 : X = 0
H=1,S=0,B=1,D=0,E=0 : X = 1
H=1,S=0,B=1,D=0,E=1 : X = 1
H=1,S=0,B=1,D=1,E=0 : X = 1
H=1,S=0,B=1,D=1,E=1 : X = 1
H=1,S=1,B=0,D=0,E=0 : X = 1
H=1,S=1,B=0,D=0,E=1 : X = 1
H=1,S=1,B=0,D=1,E=0 : X = 1
H=1,S=1,B=0,D=1,E=1 : X = 1
H=1,S=1,B=1,D=0,E=0 : X = 1
H=1,S=1,B=1,D=0,E=1 : X = 1
H=1,S=1,B=1,D=1,E=0 : X = 1
H=1,S=1,B=1,D=1,E=1 : X = 0
Stopped at time : 160 ns : File "C:/Digi/car/test.v" Line 95
